{
  "prepare_queue": {
    "installed": [],
    "uninstalled": []
  },
  "config_munge": {
    "files": {}
  },
  "installed_plugins": {
    "cordova-plugin-badge": {
      "PACKAGE_NAME": "com.tapper.dive"
    },
    "cordova-plugin-camera": {
      "PACKAGE_NAME": "com.tapper.dive"
    },
    "cordova-plugin-datepicker": {
      "PACKAGE_NAME": "com.tapper.dive"
    },
    "cordova-plugin-globalization": {
      "PACKAGE_NAME": "com.tapper.dive"
    },
    "cordova-plugin-google-analytics": {
      "PACKAGE_NAME": "com.tapper.dive"
    },
    "cordova-plugin-inappbrowser": {
      "PACKAGE_NAME": "com.tapper.dive"
    },
    "cordova-plugin-listpicker": {
      "PACKAGE_NAME": "com.tapper.dive"
    },
    "cordova-plugin-sim": {
      "PACKAGE_NAME": "com.tapper.dive"
    },
    "cordova-plugin-splashscreen": {
      "PACKAGE_NAME": "com.tapper.dive"
    },
    "cordova-plugin-whitelist": {
      "PACKAGE_NAME": "com.tapper.dive"
    },
    "cordova-plugin-x-socialsharing": {
      "PACKAGE_NAME": "com.tapper.dive"
    },
    "es6-promise-plugin": {
      "PACKAGE_NAME": "com.tapper.dive"
    },
    "ionic-plugin-keyboard": {
      "PACKAGE_NAME": "com.tapper.dive"
    },
    "onesignal-cordova-plugin": {
      "PACKAGE_NAME": "com.tapper.dive"
    },
    "cordova-plugin-file-transfer": {
      "PACKAGE_NAME": "com.tapper.dive"
    }
  },
  "dependent_plugins": {
    "cordova-plugin-file": {
      "PACKAGE_NAME": "com.tapper.dive"
    }
  }
}