{
"EG":"Egypt",
"PW":"Palau",
"PH":"Philippines",
"JO":"Jordan",
"ZA":"South Africa",
"MV":"Maldives",
"EC":"Ecuador",
"CC":"Cocos [Keeling] Islands",
"FM":"Micronesia",
"HI":"Hawaii",
"TH":"Thailand",
"MY":"Malaysia",
"CR":"Costa Rica",
"AU":"Australia",
"NZ":"New Zealand",
"GY":"Guyana",
"BZ":"Belize",
"MT":"Malta",
"GR":"Greece",
"US":"United States",

"MT":"Malta and Gozo",
"IN":"India",
"ID":"Indonesia",
"JP":"Okinawa Island",
"SG":"Singapore",
"LK":"Sri Lanka",
"VN":"Vietnam",
"MZ":"Mozambique",
"TZ":"Tanzania",
"FJ":"Fiji",
"PF":"French Polynesia",
"PG":"Papua New Guinea",
"VU":"Vanuatu",
"AW":"Aruba",
"BS":"Bahamas",
"BB":"Barbados",
"BM":"Bermuda",

"KY":"Cayman Islands",
"DM":"Dominica",
"DO":"Dominican Republic",
"GD":"Grenada",
"PR":"Puerto Rico",
"TT":"Trinidad and Tobago",
"TC":"Turks and Caicos Islands",
"HN":"Honduras",
"BZ":"Belize",
"PA":"Panama",
"HR":"Croatia",
"CY":"Cyprus",
"DE":"Germany",
"IT":"Italy",
"ES":"Spain",
"IE":"Ireland",
"AE":"United Arab Emirates",
"OM":"Oman",
"MX":"Mexico",
"FR":"France"


}

